…
``` r
power.data %>% group_by(n.participants,  n.items, reused.items) %>% count()
```

    ## # A tibble: 31 x 4
    ## # Groups:   n.participants, n.items, reused.items [31]
    ##    n.participants n.items reused.items     n
    ##             <int>   <dbl> <lgl>        <int>
    ##  1             50      12 TRUE          1010
    ##  2            100      12 FALSE          105
    ##  3            100      12 TRUE          1010
    ##  4            100      15 FALSE          515
    ##  5            100      18 FALSE          152
    ##  6            150      12 FALSE          105
    ##  7            150      12 TRUE          1010
    ##  8            150      15 FALSE          482
    ##  9            150      18 FALSE          124
    ## 10            200      12 FALSE          105
    ## # … with 21 more rows
…
